Using the practicalPSI Package
…
y= raw_data$hdl1
x <- raw_data %>% dplyr::select(-hdl1)

Full model bootstrap

model<- lm(y~., data=cbind(y,x), x= TRUE, y=TRUE)
full_model_linear <- full_boot(model, B=5, family="gaussian",parallel = TRUE)

full_model_linear

## # A tibble: 32 × 9
##    term          mean_estimate conf.low conf.high median_p.value  ci_ln prop.rej
##    <fct>                 <dbl>    <dbl>     <dbl>          <dbl>  <dbl>    <dbl>
##  1 (Intercept)         14.2    10.6        17.3         9.61e- 5 6.69        1  
##  2 hthormone th…        4.95    4.51        5.23        1.70e-45 0.718       1  
##  3 age                  0.0530  0.00507     0.101       5.45e- 2 0.0960      0.4
##  4 racethAfrica…        2.21    1.19        2.95        1.38e- 4 1.76        0.6
##  5 racethOther         -2.39   -3.52       -1.85        4.20e- 2 1.67        0.6
##  6 smokingyes           0.0698 -0.955       1.21        1.97e- 1 2.17        0.2
##  7 drinkanyyes          0.290  -0.203       0.781       2.49e- 1 0.984       0.2
##  8 exerciseyes          0.538   0.236       1.00        3.35e- 1 0.769       0.2
##  9 physactsomew…        2.28    1.47        3.25        8.90e- 3 1.78        0.8
## 10 physactabout…        1.62    0.694       2.45        4.24e- 2 1.76        0.6
## # ℹ 22 more rows
## # ℹ 2 more variables: ci_avg_ratio <dbl>, ci_median_ratio <dbl>
