Using the practicalPSI Package
…
3.3 Perfoming post-seelction inference

aic_hybrid =infer(aic_model,  method = "hybrid", nonselection = "ignored")

lasso_sel_confident  = infer(lassomin_model , method="selectiveinf",nonselection="confident_nulls")

3.4 Full model bootstrap without any model selection

model<- lm(y~., data=cbind(y,x), x= TRUE, y=TRUE)
full_model_linear <- full_boot(model, B=5, family="gaussian",parallel = TRUE)

full_model_linear

## # A tibble: 32 × 9
##    term          mean_estimate conf.low conf.high median_p.value  ci_ln prop.rej
##    <fct>                 <dbl>    <dbl>     <dbl>          <dbl>  <dbl>    <dbl>
##  1 (Intercept)         15.9      9.10      22.7         2.98e- 4 13.6        1  
##  2 hthormone th…        5.09     4.78       5.40        4.28e-40  0.623      1  
##  3 age                  0.0855   0.0477     0.150       1.46e- 2  0.103      0.8
##  4 racethAfrica…        1.77     1.09       2.77        4.53e- 2  1.67       0.6
##  5 racethOther         -1.67    -2.42      -0.985       1.81e- 1  1.44       0.4
##  6 smokingyes          -0.229   -0.763      0.336       5.26e- 1  1.10       0  
##  7 drinkanyyes          0.601    0.156      1.28        1.94e- 1  1.12       0.2
##  8 exerciseyes          0.176   -0.205      0.596       4.26e- 1  0.801      0  
##  9 physactsomew…        0.806   -0.165      2.48        4.05e- 1  2.65       0.2
## 10 physactabout…        0.467   -0.154      1.39        8.30e- 1  1.55       0  
## # ℹ 22 more rows
## # ℹ 2 more variables: ci_avg_ratio <dbl>, ci_median_ratio <dbl>
